{"posts":[{"id":130,"userId":7,"eventId":null,"contextType":null,"contextId":null,"content":"@[Buenos Aires Tango Community](city:buenos-aires-tango)","richContent":null,"plainText":"@[Buenos Aires Tango Community](city:buenos-aires-tango)","imageUrl":null,"videoUrl":null,"mediaEmbeds":[],"mentions":[],"hashtags":[],"location":null,"coordinates":null,"placeId":null,"formattedAddress":null,"visibility":"public","postType":"memory","likes":0,"comments":0,"shares":0,"likesCount":0,"commentsCount":0,"sharesCount":0,"isPublic":true,"isEdited":false,"createdAt":"2025-10-05T03:43:47.881Z","updatedAt":"2025-10-05T03:43:47.916Z","user":{"id":7,"name":"Pierre Dubois","username":"pierre_dancer","profileImage":null,"tangoRoles":["dancer"],"leaderLevel":5,"followerLevel":4,"city":"Buenos Aires","state":null,"country":"Argentina","friendshipStatus":"none"},"mediaUrls":[]},{"id":129,"userId":7,"eventId":null,"contextType":"group","contextId":1,"content":"asd","richContent":"asd","plainText":"asd","imageUrl":null,"videoUrl":null,"mediaEmbeds":[],"mentions":[],"hashtags":[],"location":null,"coordinates":null,"placeId":null,"formattedAddress":null,"visibility":"public","postType":"memory","likes":0,"comments":0,"shares":0,"likesCount":0,"commentsCount":0,"sharesCount":0,"isPublic":true,"isEdited":false,"createdAt":"2025-10-05T03:32:15.164Z","updatedAt":"2025-10-05T03:32:15.200Z","user":{"id":7,"name":"Pierre Dubois","username":"pierre_dancer","profileImage":null,"tangoRoles":["dancer"],"leaderLevel":5,"followerLevel":4,"city":"Buenos Aires","state":null,"country":"Argentina","friendshipStatus":"none"},"mediaUrls":[]},{"id":128,"userId":7,"eventId":null,"contextType":"group","contextId":1,"content":"asdfas","richContent":"asdfas","plainText":"asdfas","imageUrl":null,"videoUrl":null,"mediaEmbeds":[],"mentions":[],"hashtags":[],"location":null,"coordinates":null,"placeId":null,"formattedAddress":null,"visibility":"public","postType":"memory","likes":0,"comments":0,"shares":0,"likesCount":0,"commentsCount":0,"sharesCount":0,"isPublic":true,"isEdited":false,"createdAt":"2025-10-05T02:59:09.873Z","updatedAt":"2025-10-05T02:59:09.912Z","user":{"id":7,"name":"Pierre Dubois","username":"pierre_dancer","profileImage":null,"tangoRoles":["dancer"],"leaderLevel":5,"followerLevel":4,"city":"Buenos Aires","state":null,"country":"Argentina","friendshipStatus":"none"},"mediaUrls":[]},{"id":127,"userId":7,"eventId":null,"contextType":null,"contextId":null,"content":"","richContent":null,"plainText":"","imageUrl":"/uploads/optimized-1759631357053-a71de59b-860e-4a93-9f17-cfc767302bce.jpg","videoUrl":null,"mediaEmbeds":["/uploads/optimized-1759631357053-a71de59b-860e-4a93-9f17-cfc767302bce.jpg"],"mentions":[],"hashtags":[],"location":null,"coordinates":null,"placeId":null,"formattedAddress":null,"visibility":"public","postType":"memory","likes":0,"comments":0,"shares":0,"likesCount":0,"commentsCount":0,"sharesCount":0,"isPublic":true,"isEdited":false,"createdAt":"2025-10-05T02:29:20.515Z","updatedAt":"2025-10-05T02:29:20.551Z","user":{"id":7,"name":"Pierre Dubois","username":"pierre_dancer","profileImage":null,"tangoRoles":["dancer"],"leaderLevel":5,"followerLevel":4,"city":"Buenos Aires","state":null,"country":"Argentina","friendshipStatus":"none"},"mediaUrls":["/uploads/optimized-1759631357053-a71de59b-860e-4a93-9f17-cfc767302bce.jpg"]},{"id":126,"userId":7,"eventId":null,"contextType":null,"contextId":null,"content":"asdfa","richContent":null,"plainText":"asdfa","imageUrl":null,"videoUrl":null,"mediaEmbeds":[],"mentions":[],"hashtags":[],"location":null,"coordinates":null,"placeId":null,"formattedAddress":null,"visibility":"public","postType":"memory","likes":0,"comments":0,"shares":0,"likesCount":0,"commentsCount":0,"sharesCount":0,"isPublic":true,"isEdited":false,"createdAt":"2025-10-05T02:28:44.382Z","updatedAt":"2025-10-05T02:28:44.421Z","user":{"id":7,"name":"Pierre Dubois","username":"pierre_dancer","profileImage":null,"tangoRoles":["dancer"],"leaderLevel":5,"followerLevel":4,"city":"Buenos Aires","state":null,"country":"Argentina","friendshipStatus":"none"},"mediaUrls":[]},{"id":125,"userId":7,"eventId":null,"contextType":null,"contextId":null,"content":"asd","richContent":"asd","plainText":"asd","imageUrl":"/uploads/optimized-1759630544215-1fb5c348-dea9-4fc3-94d8-707ac287e0f4.jpg","videoUrl":null,"mediaEmbeds":["/uploads/optimized-1759630544215-1fb5c348-dea9-4fc3-94d8-707ac287e0f4.jpg"],"mentions":[],"hashtags":[],"location":null,"coordinates":null,"placeId":null,"formattedAddress":null,"visibility":"public","postType":"memory","likes":0,"comments":0,"shares":0,"likesCount":0,"commentsCount":0,"sharesCount":0,"isPublic":true,"isEdited":false,"createdAt":"2025-10-05T02:15:50.993Z","updatedAt":"2025-10-05T02:15:51.028Z","user":{"id":7,"name":"Pierre Dubois","username":"pierre_dancer","profileImage":null,"tangoRoles":["dancer"],"leaderLevel":5,"followerLevel":4,"city":"Buenos Aires","state":null,"country":"Argentina","friendshipStatus":"none"},"mediaUrls":["/uploads/optimized-1759630544215-1fb5c348-dea9-4fc3-94d8-707ac287e0f4.jpg"]},{"id":124,"userId":7,"eventId":null,"contextType":null,"contextId":null,"content":"sdf","richContent":"sdf","plainText":"sdf","imageUrl":null,"videoUrl":null,"mediaEmbeds":[],"mentions":[],"hashtags":[],"location":null,"coordinates":null,"placeId":null,"formattedAddress":null,"visibility":"public","postType":"memory","likes":0,"comments":0,"shares":0,"likesCount":0,"commentsCount":0,"sharesCount":0,"isPublic":true,"isEdited":false,"createdAt":"2025-10-05T02:13:19.683Z","updatedAt":"2025-10-05T02:13:19.729Z","user":{"id":7,"name":"Pierre Dubois","username":"pierre_dancer","profileImage":null,"tangoRoles":["dancer"],"leaderLevel":5,"followerLevel":4,"city":"Buenos Aires","state":null,"country":"Argentina","friendshipStatus":"none"},"mediaUrls":[]},{"id":123,"userId":7,"eventId":null,"contextType":null,"contextId":null,"content":"sdf","richContent":"sdf","plainText":"sdf","imageUrl":null,"videoUrl":null,"mediaEmbeds":[],"mentions":[],"hashtags":[],"location":null,"coordinates":null,"placeId":null,"formattedAddress":null,"visibility":"public","postType":"memory","likes":0,"comments":0,"shares":0,"likesCount":0,"commentsCount":0,"sharesCount":0,"isPublic":true,"isEdited":false,"createdAt":"2025-10-05T02:01:49.388Z","updatedAt":"2025-10-05T02:01:49.424Z","user":{"id":7,"name":"Pierre Dubois","username":"pierre_dancer","profileImage":null,"tangoRoles":["dancer"],"leaderLevel":5,"followerLevel":4,"city":"Buenos Aires","state":null,"country":"Argentina","friendshipStatus":"none"},"mediaUrls":[]},{"id":122,"userId":7,"eventId":null,"contextType":null,"contextId":null,"content":"asd","richContent":"asd","plainText":"asd","imageUrl":null,"videoUrl":null,"mediaEmbeds":[],"mentions":[],"hashtags":[],"location":null,"coordinates":null,"placeId":null,"formattedAddress":null,"visibility":"public","postType":"memory","likes":0,"comments":0,"shares":0,"likesCount":0,"commentsCount":0,"sharesCount":0,"isPublic":true,"isEdited":false,"createdAt":"2025-10-05T01:18:35.582Z","updatedAt":"2025-10-05T01:18:35.622Z","user":{"id":7,"name":"Pierre Dubois","username":"pierre_dancer","profileImage":null,"tangoRoles":["dancer"],"leaderLevel":5,"followerLevel":4,"city":"Buenos Aires","state":null,"country":"Argentina","friendshipStatus":"none"},"mediaUrls":[]},{"id":121,"userId":7,"eventId":null,"contextType":null,"contextId":null,"content":"test","richContent":"test","plainText":"test","imageUrl":null,"videoUrl":null,"mediaEmbeds":[],"mentions":[],"hashtags":[],"location":null,"coordinates":null,"placeId":null,"formattedAddress":null,"visibility":"public","postType":"memory","likes":0,"comments":0,"shares":0,"likesCount":0,"commentsCount":0,"sharesCount":0,"isPublic":true,"isEdited":false,"createdAt":"2025-10-05T01:06:38.916Z","updatedAt":"2025-10-05T01:06:38.951Z","user":{"id":7,"name":"Pierre Dubois","username":"pierre_dancer","profileImage":null,"tangoRoles":["dancer"],"leaderLevel":5,"followerLevel":4,"city":"Buenos Aires","state":null,"country":"Argentina","friendshipStatus":"none"},"mediaUrls":[]},{"id":120,"userId":7,"eventId":null,"contextType":null,"contextId":null,"content":"After restart test","richContent":null,"plainText":"After restart test","imageUrl":null,"videoUrl":null,"mediaEmbeds":[],"mentions":[],"hashtags":[],"location":null,"coordinates":null,"placeId":null,"formattedAddress":null,"visibility":"public","postType":"memory","likes":0,"comments":0,"shares":0,"likesCount":0,"commentsCount":0,"sharesCount":0,"isPublic":true,"isEdited":false,"createdAt":"2025-10-05T00:13:36.582Z","updatedAt":"2025-10-05T00:13:36.617Z","user":{"id":7,"name":"Pierre Dubois","username":"pierre_dancer","profileImage":null,"tangoRoles":["dancer"],"leaderLevel":5,"followerLevel":4,"city":"Buenos Aires","state":null,"country":"Argentina","friendshipStatus":"none"},"mediaUrls":[]},{"id":119,"userId":7,"eventId":null,"contextType":null,"contextId":null,"content":"Direct SQL test","richContent":null,"plainText":null,"imageUrl":null,"videoUrl":null,"mediaEmbeds":[],"mentions":[],"hashtags":[],"location":null,"coordinates":null,"placeId":null,"formattedAddress":null,"visibility":"public","postType":"memory","likes":0,"comments":0,"shares":0,"likesCount":0,"commentsCount":0,"sharesCount":0,"isPublic":true,"isEdited":false,"createdAt":"2025-10-05T00:12:57.958Z","updatedAt":"2025-10-05T00:12:57.958Z","user":{"id":7,"name":"Pierre Dubois","username":"pierre_dancer","profileImage":null,"tangoRoles":["dancer"],"leaderLevel":5,"followerLevel":4,"city":"Buenos Aires","state":null,"country":"Argentina","friendshipStatus":"none"},"mediaUrls":[]},{"id":118,"userId":7,"eventId":null,"contextType":null,"contextId":null,"content":"Test after forcing isPublic TRUE","richContent":null,"plainText":"Test after forcing isPublic TRUE","imageUrl":null,"videoUrl":null,"mediaEmbeds":[],"mentions":[],"hashtags":[],"location":null,"coordinates":null,"placeId":null,"formattedAddress":null,"visibility":"public","postType":"memory","likes":0,"comments":0,"shares":0,"likesCount":0,"commentsCount":0,"sharesCount":0,"isPublic":false,"isEdited":false,"createdAt":"2025-10-05T00:11:49.904Z","updatedAt":"2025-10-05T00:11:49.939Z","user":{"id":7,"name":"Pierre Dubois","username":"pierre_dancer","profileImage":null,"tangoRoles":["dancer"],"leaderLevel":5,"followerLevel":4,"city":"Buenos Aires","state":null,"country":"Argentina","friendshipStatus":"none"},"mediaUrls":[]},{"id":117,"userId":7,"eventId":null,"contextType":null,"contextId":null,"content":"Debug test from curl","richContent":null,"plainText":"Debug test from curl","imageUrl":null,"videoUrl":null,"mediaEmbeds":[],"mentions":[],"hashtags":[],"location":null,"coordinates":null,"placeId":null,"formattedAddress":null,"visibility":"public","postType":"memory","likes":0,"comments":0,"shares":0,"likesCount":0,"commentsCount":0,"sharesCount":0,"isPublic":true,"isEdited":false,"createdAt":"2025-10-05T00:07:55.141Z","updatedAt":"2025-10-05T00:07:55.176Z","user":{"id":7,"name":"Pierre Dubois","username":"pierre_dancer","profileImage":null,"tangoRoles":["dancer"],"leaderLevel":5,"followerLevel":4,"city":"Buenos Aires","state":null,"country":"Argentina","friendshipStatus":"none"},"mediaUrls":[]},{"id":116,"userId":7,"eventId":null,"contextType":null,"contextId":null,"content":"Manual test post","richContent":null,"plainText":"Manual test post","imageUrl":null,"videoUrl":null,"mediaEmbeds":[],"mentions":[],"hashtags":[],"location":null,"coordinates":null,"placeId":null,"formattedAddress":null,"visibility":"public","postType":"memory","likes":0,"comments":0,"shares":0,"likesCount":0,"commentsCount":0,"sharesCount":0,"isPublic":true,"isEdited":false,"createdAt":"2025-10-05T00:05:40.627Z","updatedAt":"2025-10-05T00:05:40.663Z","user":{"id":7,"name":"Pierre Dubois","username":"pierre_dancer","profileImage":null,"tangoRoles":["dancer"],"leaderLevel":5,"followerLevel":4,"city":"Buenos Aires","state":null,"country":"Argentina","friendshipStatus":"none"},"mediaUrls":[]},{"id":115,"userId":7,"eventId":null,"contextType":null,"contextId":null,"content":"tt","richContent":"tt","plainText":"tt","imageUrl":null,"videoUrl":null,"mediaEmbeds":[],"mentions":[],"hashtags":[],"location":null,"coordinates":null,"placeId":null,"formattedAddress":null,"visibility":"public","postType":"memory","likes":0,"comments":0,"shares":0,"likesCount":0,"commentsCount":0,"sharesCount":0,"isPublic":true,"isEdited":false,"createdAt":"2025-10-04T23:48:11.287Z","updatedAt":"2025-10-04T23:48:11.322Z","user":{"id":7,"name":"Pierre Dubois","username":"pierre_dancer","profileImage":null,"tangoRoles":["dancer"],"leaderLevel":5,"followerLevel":4,"city":"Buenos Aires","state":null,"country":"Argentina","friendshipStatus":"none"},"mediaUrls":[]},{"id":114,"userId":7,"eventId":null,"contextType":null,"contextId":null,"content":"test","richContent":"test","plainText":"test","imageUrl":null,"videoUrl":null,"mediaEmbeds":[],"mentions":[],"hashtags":[],"location":null,"coordinates":null,"placeId":null,"formattedAddress":null,"visibility":"public","postType":"memory","likes":0,"comments":0,"shares":0,"likesCount":0,"commentsCount":0,"sharesCount":0,"isPublic":true,"isEdited":false,"createdAt":"2025-10-04T23:47:44.835Z","updatedAt":"2025-10-04T23:47:44.871Z","user":{"id":7,"name":"Pierre Dubois","username":"pierre_dancer","profileImage":null,"tangoRoles":["dancer"],"leaderLevel":5,"followerLevel":4,"city":"Buenos Aires","state":null,"country":"Argentina","friendshipStatus":"none"},"mediaUrls":[]},{"id":113,"userId":7,"eventId":null,"contextType":null,"contextId":null,"content":"Test post for Playwright edit/delete testing","richContent":null,"plainText":null,"imageUrl":null,"videoUrl":null,"mediaEmbeds":[],"mentions":[],"hashtags":[],"location":null,"coordinates":null,"placeId":null,"formattedAddress":null,"visibility":"public","postType":"memory","likes":0,"comments":0,"shares":0,"likesCount":0,"commentsCount":0,"sharesCount":0,"isPublic":true,"isEdited":false,"createdAt":"2025-10-03T00:31:07.078Z","updatedAt":"2025-10-03T00:31:07.078Z","user":{"id":7,"name":"Pierre Dubois","username":"pierre_dancer","profileImage":null,"tangoRoles":["dancer"],"leaderLevel":5,"followerLevel":4,"city":"Buenos Aires","state":null,"country":"Argentina","friendshipStatus":"none"},"mediaUrls":[]},{"id":111,"userId":24,"eventId":null,"contextType":null,"contextId":null,"content":"Test memory post for comprehensive testing","richContent":null,"plainText":null,"imageUrl":null,"videoUrl":null,"mediaEmbeds":[],"mentions":[],"hashtags":[],"location":null,"coordinates":null,"placeId":null,"formattedAddress":null,"visibility":"public","postType":"memory","likes":0,"comments":0,"shares":0,"likesCount":0,"commentsCount":0,"sharesCount":0,"isPublic":true,"isEdited":false,"createdAt":"2025-10-01T14:44:59.997Z","updatedAt":"2025-10-01T14:44:59.997Z","user":{"id":24,"name":"Memory Feed Tester","username":"memfeedtester1759329899727","profileImage":"/images/default-avatar.png","tangoRoles":["leader","dj"],"leaderLevel":3,"followerLevel":3,"city":"Buenos Aires","state":null,"country":"Argentina","friendshipStatus":"none"},"mediaUrls":[]},{"id":110,"userId":22,"eventId":null,"contextType":null,"contextId":null,"content":"Test memory post for comprehensive testing","richContent":null,"plainText":null,"imageUrl":null,"videoUrl":null,"mediaEmbeds":[],"mentions":[],"hashtags":[],"location":null,"coordinates":null,"placeId":null,"formattedAddress":null,"visibility":"public","postType":"memory","likes":0,"comments":0,"shares":0,"likesCount":0,"commentsCount":0,"sharesCount":0,"isPublic":true,"isEdited":false,"createdAt":"2025-10-01T14:44:41.599Z","updatedAt":"2025-10-01T14:44:41.599Z","user":{"id":22,"name":"Memory Feed Tester","username":"memfeedtester1759329881337","profileImage":"/images/default-avatar.png","tangoRoles":["leader","dj"],"leaderLevel":3,"followerLevel":3,"city":"Buenos Aires","state":null,"country":"Argentina","friendshipStatus":"none"},"mediaUrls":[]}],"hasMore":true,"total":97,"page":1}